info face="Arial" size=-15 bold=0 italic=0 charset="" unicode=1 stretchH=100 smooth=1 aa=2 padding=0,1,1,0 spacing=1,1 outline=0
common lineHeight=16 base=16 scaleW=256 scaleH=512 pages=1 packed=0 alphaChnl=0 redChnl=4 greenChnl=4 blueChnl=4
page id=0 file="ld37-font.png"
chars count=9
char id=33   x=16    y=96    width=16     height=16    xoffset=0     yoffset=0     xadvance=8     page=0  chnl=15
char id=46   x=0    y=96    width=16     height=16    xoffset=0     yoffset=0     xadvance=8     page=0  chnl=15
char id=48   x=0    y=0    width=16     height=16    xoffset=0     yoffset=0     xadvance=8     page=0  chnl=15
char id=49   x=16   y=0    width=16     height=16    xoffset=0     yoffset=0     xadvance=8     page=0  chnl=15
char id=50   x=32    y=0    width=16     height=16    xoffset=0     yoffset=0     xadvance=8     page=0  chnl=15
char id=51   x=48    y=0    width=16     height=16    xoffset=0     yoffset=0     xadvance=8     page=0  chnl=15
char id=52   x=64   y=0    width=16     height=16    xoffset=0     yoffset=0     xadvance=8     page=0  chnl=15
char id=53   x=80    y=0    width=16     height=16    xoffset=0     yoffset=0     xadvance=8     page=0  chnl=15
char id=54   x=0    y=16    width=16     height=16    xoffset=0     yoffset=0     xadvance=8     page=0  chnl=15
char id=55   x=16    y=16   width=16     height=16    xoffset=0     yoffset=0     xadvance=8     page=0  chnl=15
char id=56   x=32    y=16    width=16     height=16    xoffset=0     yoffset=0     xadvance=8     page=0  chnl=15
char id=57   x=48    y=16    width=16     height=16    xoffset=0     yoffset=0     xadvance=8     page=0  chnl=15
char id=65   x=64    y=16    width=16     height=16    xoffset=0     yoffset=0     xadvance=8     page=0  chnl=15
char id=66   x=80   y=16    width=16     height=16    xoffset=0     yoffset=0     xadvance=8     page=0  chnl=15
char id=67   x=0    y=32    width=16     height=16    xoffset=0     yoffset=0     xadvance=8     page=0  chnl=15
char id=68   x=16    y=32    width=16     height=16    xoffset=0     yoffset=0     xadvance=8     page=0  chnl=15
char id=69   x=32   y=32    width=16     height=16    xoffset=0     yoffset=0     xadvance=8     page=0  chnl=15
char id=70   x=48    y=32    width=16     height=16    xoffset=0     yoffset=0     xadvance=8     page=0  chnl=15
char id=71   x=64   y=32   width=16     height=16    xoffset=0     yoffset=0     xadvance=8     page=0  chnl=15
char id=72   x=80    y=32   width=16     height=16    xoffset=0     yoffset=0     xadvance=8     page=0  chnl=15
char id=73   x=0    y=48    width=16     height=16    xoffset=0     yoffset=0     xadvance=8     page=0  chnl=15
char id=74   x=16    y=48    width=16     height=16    xoffset=0     yoffset=0     xadvance=8     page=0  chnl=15
char id=75   x=32    y=48    width=16     height=16    xoffset=0     yoffset=0     xadvance=8     page=0  chnl=15
char id=76   x=48     y=48   width=16     height=16    xoffset=0     yoffset=0     xadvance=8     page=0  chnl=15
char id=77   x=64    y=48    width=16     height=16    xoffset=0     yoffset=0     xadvance=8     page=0  chnl=15
char id=78   x=80    y=48    width=16     height=16    xoffset=0     yoffset=0     xadvance=8     page=0  chnl=15
char id=79   x=0       y=64  width=16     height=16    xoffset=0     yoffset=0     xadvance=8     page=0  chnl=15
char id=80   x=16    y=64    width=16     height=16    xoffset=0     yoffset=0     xadvance=8     page=0  chnl=15
char id=81   x=32    y=64   width=16     height=16    xoffset=0     yoffset=0     xadvance=8     page=0  chnl=15
char id=82   x=48    y=64   width=16     height=16    xoffset=0     yoffset=0     xadvance=8     page=0  chnl=15
char id=83   x=64    y=64    width=16     height=16    xoffset=0     yoffset=0     xadvance=8     page=0  chnl=15
char id=84   x=80    y=64    width=16     height=16    xoffset=0     yoffset=0     xadvance=8     page=0  chnl=15
char id=85   x=0    y=80    width=16     height=16    xoffset=0     yoffset=0     xadvance=8     page=0  chnl=15
char id=86   x=16   y=80    width=16     height=16    xoffset=0     yoffset=0     xadvance=8     page=0  chnl=15
char id=87   x=32    y=80    width=16     height=16    xoffset=0     yoffset=0     xadvance=8     page=0  chnl=15
char id=88   x=48    y=80    width=16     height=16    xoffset=0     yoffset=0     xadvance=8     page=0  chnl=15
char id=89   x=64   y=80    width=16     height=16    xoffset=0     yoffset=0     xadvance=8     page=0  chnl=15
char id=90   x=80    y=80    width=16     height=16    xoffset=0     yoffset=0     xadvance=8     page=0  chnl=15
